PS D:\Pluralsight\Udemy - Comprehensive ASP.NET MVC\Project\SimpleBlog\SimpleBlog> ..\packages\FluentMigr
ator.1.6.1\tools\Migrate.exe --db=mysql --terget=bin\simpleblog.dll --configPath=Web.Config -c=MainDb

..\packages\FluentMigrator.1.6.1\tools\Migrate.exe --db=MySql --target=bin\simpleblog.dll --configPath=web.config --c=MainDb
-t=rollback


 .\DeployDb-Dev.bat
   
-------------------------------------------------------------------------------
=============================== FluentMigrator ================================
-------------------------------------------------------------------------------
Source Code:
  http://github.com/schambers/fluentmigrator
Ask For Help:
  http://groups.google.com/group/fluentmigrator-google-group
-------------------------------------------------------------------------------

Usage:
  migrate [OPTIONS]
Example:
  migrate -a bin\debug\MyMigrations.dll -db SqlServer2008 -conn "SEE_BELOW" -profile "Debug"

-------------------------------------------------------------------------------

Example Connection Strings:
  MySql: Data Source=172.0.0.1;Database=Foo;User Id=USERNAME;Password=BLAH
  Oracle: Server=172.0.0.1;Database=Foo;Uid=USERNAME;Pwd=BLAH
  SqlLite: Data Source=:memory:;Version=3;New=True
  SqlServer: server=127.0.0.1;database=Foo;user id=USERNAME;password=BLAH
             server=.\SQLExpress;database=Foo;trusted_connection=true

			 
OR use a named connection string from the machine.config:
  migrate -a bin\debug\MyMigrations.dll -db SqlServer2008 -conn "namedConnection" -profile "Debug"
  
-------------------------------------------------------------------------------
Options:
      --assembly, -a, --target=VALUE
                             REQUIRED. The assembly containing the migrations
                               you want to execute.
      --provider, --dbType, --db=VALUE
                             REQUIRED. The kind of database you are migrating
                               against. Available choices are: Db2,
                               DotConnectOracle, Firebird, Hana, Jet, MySql,
                               Oracle, OracleManaged, Postgres, SQLite,
                               SqlServer, SqlServer2000, SqlServer2005,
                               SqlServer2008, SqlServer2012, SqlServer2014,
                               SqlServerCe.
      --connectionString, --connection, --conn, -c=VALUE
                             The name of the connection string (falls back to
                               machine name) or the connection string itself
                               to the server and database you want to execute
                               your migrations against.
      --connectionStringConfigPath, --configPath=VALUE
                             The path of the machine.config where the
                               connection string named by connectionString is
                               found. If not specified, it defaults to the
                               machine.config used by the currently running
                               CLR version
      --namespace, --ns=VALUE
                             The namespace contains the migrations you want to
                               run. Default is all migrations found within the
                               Target Assembly will be run.
      --nested               Whether migrations in nested namespaces should be
                               included. Used in conjunction with the
                               namespace option.
      --output, --out, -o    Output generated SQL to a file. Default is no
                               output. Use outputFilename to control the
                               filename, otherwise [assemblyname].sql is the
                               default.
      --outputFilename, --outfile, --of=VALUE
                             The name of the file to output the generated SQL
                               to. The output option must be included for
                               output to be saved to the file.
      --preview, -p          Only output the SQL generated by the migration -
                               do not execute it. Default is false.
      --steps=VALUE          The number of versions to rollback if the task is
                               'rollback'. Default is 1.
      --task, -t=VALUE       The task you want FluentMigrator to perform.
                               Available choices are: migrate:up, migrate (
                               same as migrate:up), migrate:down, rollback,
                               rollback:toversion, rollback:all,
                               validateversionorder, listmigrations. Default
                               is 'migrate'.
      --version=VALUE        The specific version to migrate. Default is 0,
                               which will run all migrations.
      --startVersion=VALUE   The specific version to start migrating from.
                               Only used when NoConnection is true. Default is
                               0
      --noConnection         Indicates that migrations will be generated
                               without consulting a target database. Should
                               only be used when generating an output file.
      --verbose=VALUE        Show the SQL statements generated and execution
                               time in the console. Default is false.
      --workingdirectory, --wd=VALUE
                             The directory to load SQL scripts specified by
                               migrations from.
      --profile=VALUE        The profile to run after executing migrations.
      --context=VALUE        Set ApplicationContext to the given string.
      --timeout=VALUE        Overrides the default SqlCommand timeout of 30
                               seconds.
      --tag=VALUE            Filters the migrations to be run by tag.
      --providerswitches=VALUE
                             Provider specific switches
      --help, -h, -?         Displays this help menu.
      --transaction-per-session, --tps
                             Overrides the transaction behavior of migrations,
                               so that all migrations to be executed will run
                               in one transaction.
PS D:\Pluralsight\Udemy - Comprehensive ASP.NET MVC\Project\SimpleBlog\SimpleBlog>

PS D:\Pluralsight\Udemy - Comprehensive ASP.NET MVC\Project\SimpleBlog\SimpleBlog> ..\packages\FluentMigrator.1.6.1\tool
s\Migrate.exe --db=MySql --target=bin\simpleblog.dll --configPath=web.config --c=MainDb [Press Enter]

-------------------------------------------------------------------------------
=============================== FluentMigrator ================================
-------------------------------------------------------------------------------
Source Code:
  http://github.com/schambers/fluentmigrator
Ask For Help:
  http://groups.google.com/group/fluentmigrator-google-group
-------------------------------------------------------------------------------
[+] Using Connection MainDb from Configuration file D:\Pluralsight\Udemy - Comprehensive ASP.NET MVC\Project\SimpleBlog\SimpleBlog\web.config
-------------------------------------------------------------------------------
VersionMigration migrating
-------------------------------------------------------------------------------
[+] CreateTable VersionInfo
[+] VersionMigration migrated
-------------------------------------------------------------------------------
VersionUniqueMigration migrating
-------------------------------------------------------------------------------
[+] CreateIndex VersionInfo (Version)
[+] AlterTable VersionInfo
[+] CreateColumn VersionInfo AppliedOn DateTime
[+] VersionUniqueMigration migrated
-------------------------------------------------------------------------------
VersionDescriptionMigration migrating
-------------------------------------------------------------------------------
[+] AlterTable VersionInfo
[+] CreateColumn VersionInfo Description String
[+] VersionDescriptionMigration migrated
-------------------------------------------------------------------------------
1: _001_UsersAndRoles migrating
-------------------------------------------------------------------------------
[+] CreateTable users
[+] 1: _001_UsersAndRoles migrated
[+] Task completed.
PS D:\Pluralsight\Udemy - Comprehensive ASP.NET MVC\Project\SimpleBlog\SimpleBlog>




